939078 982617 507
58609 911262 525
191747 103430 383
797836 15966 509
977166 499943 525
508294 468008 426
877796 122828 525
599919 160773 470
388063 639024 509
375555 985050 525
333205 377146 441
231731 659208 509
517032 234063 470
561243 48329 470
646941 61302 509
102808 415016 449
650016 757359 504
808659 301877 509
713647 338025 509
337954 649831 509
460260 739283 509
595672 560723 434
593326 920466 525
718245 641613 504
25898 858740 525
984522 426591 525
310933 122990 443
815935 912526 525
138491 527071 470
572753 630534 509
465767 627899 509
523282 11915 470
596613 647327 509
336259 176185 443
29289 68146 340
132136 133068 331
990452 740847 525
910562 827989 525
979810 687547 525
824568 19044 509
325043 215324 443
368777 481557 449
342288 472695 449
418021 491519 444
359189 252 443
114969 712749 509
113659 79684 354
65504 217845 386
395264 221584 443
521465 583940 452
340222 34103 443
227566 590708 470
565479 824451 509
481282 846862 525
964760 996215 458
957993 90755 525
724927 218086 509
696160 315700 509
568876 276459 470
584725 765108 509
540578 926644 525
667455 823358 504
463334 817016 509
37778 179661 383
634212 261450 509
424271 750251 509
695340 347312 509
975764 316407 525
740970 361585 509
678023 689506 398
988567 898807 507
889615 83590 525
653944 329114 509
23305 259361 443
107124 778693 509
252590 489990 449
49811 469848 449
145302 944982 525
156745 198216 370
749689 917496 525
992837 593508 525
213823 451946 449
299731 372607 441
796117 62558 509
664077 499963 509
187201 46551 383
591723 332521 470
315931 811051 509
426769 55966 449
363821 552596 470
274661 272205 358
687511 327191 509
638851 542360 509
598180 196470 470
618296 978515 525
948390 847810 507
818841 288196 509
691720 954301 525
840630 206825 525
751177 38212 509
786246 123788 509
971598 426328 525
665311 72113 509
700017 667374 442
406177 291105 441
339693 604840 470
914581 889989 476
548604 516994 452
290724 205106 443
622436 696956 509
531663 178793 470
405698 273810 441
995582 877817 507
38537 690049 509
151159 805948 509
512188 634731 509
238074 551851 470
287611 962244 525
713693 40594 509
583131 399204 470
227229 700404 509
917804 179555 525
909173 210203 525
290156 868504 525
865488 299639 525
575082 713207 509
277251 844771 525
226568 954319 525
87656 637863 509
588447 588942 315
821463 750139 468
422715 17360 449
332987 69200 443
966614 118444 525
702782 247029 509
775508 463895 509
449238 857484 525
659849 514864 509
742837 868591 525
251771 846514 525
59605 758192 509
420436 230578 449
81211 461428 449
241281 869940 525
190649 311097 443
36342 729152 509
938333 565189 525
887295 81508 525
247613 414129 449
180340 463041 449
