1 10 20
100 200 125
201 210 89
900 1000 174
802130 802188 238
248279 248307 182
976024 976026 184
743653 743636 256
830847 830806 251
450829 450925 276
218189 218285 187
953321 953263 414
295476 295409 265
19032 19028 80
182745 182795 223
868119 868160 189
731879 731887 212
783084 783045 225
586986 587024 235
41786 41716 182
834442 834350 300
658830 658882 186
823988 824007 220
394934 394882 268
305472 305465 234
975580 975487 202
956205 956139 352
638682 638628 341
710399 710494 212
740622 740715 287
778365 778353 225
835266 835166 207
219032 219095 218
553646 553636 253
205704 205733 218
274121 274033 239
488803 488795 196
815863 815769 269
440222 440123 201
344202 344268 260
852966 852898 251
711227 711298 212
501606 501623 165
47485 47416 190
805201 805174 251
794283 794231 269
658502 658543 292
407241 407286 113
904227 904136 264
642910 643006 354
693295 693226 349
363616 363621 211
332574 332488 229
202435 202448 267
71192 71249 219
845586 845629 158
630900 630932 235
188193 188282 285
647664 647715 279
370263 370338 286
194749 194767 223
172193 172196 166
648112 648038 279
334644 334736 291
553953 553985 253
610348 610365 160
571462 571393 222
15121 15038 271
457216 457149 263
49950 49941 203
125676 125712 287
514034 514045 302
662645 662599 248
414869 414790 250
944805 944741 264
282581 282675 314
740145 740155 168
733548 733462 305
432532 432457 325
4603 4592 153
392111 392075 193
951382 951367 153
831291 831298 207
581671 581733 297
838903 838994 220
850051 849997 264
440761 440780 294
128016 128033 256
486956 486894 364
935325 935245 246
55797 55756 185
798574 798543 300
195300 195374 223
561041 561051 222
123669 123665 194
207478 207408 249
294661 294676 128
973044 972971 321
359500 359425 304
732691 732685 181
271044 271097 239
716924 716997 305
555322 555273 191
340152 340100 247
138200 138143 176
272003 271978 177
766585 766505 225
26564 26598 171
421720 421692 250
583054 582992 328
377908 377903 131
814621 814558 238
115597 115535 349
588920 588846 235
169368 169446 197
507776 507867 289
750162 750215 212
475556 475577 152
502299 502399 258
102246 102244 129
651200 651110 261
211438 211488 267
982010 982104 277
574085 574098 178
965187 965231 246
663265 663237 261
210053 210077 280
250088 250182 301
379519 379535 242
537114 537194 240
519370 519413 227
492630 492710 258
982506 982449 290
93839 93751 253
563392 563416 253
416846 416931 188
124914 124858 212
480635 480656 183
669123 669220 261
394588 394673 405
238091 238136 151
833755 833844 357
591587 591630 284
568566 568629 253
