1 10 20
100 200 125
201 210 89
900 1000 174
1 1 1
999999 999999 259
5434 2374 238
837799 837799 525
1000 1998 182
1 500 144
1000 1999 182
1 4001 238
999999 1 525
619000 619999 341
999000 999999 396
6100 6300 262
7500 8500 252
10500 17500 276
6100 9500 262
1700 6300 262
999 2000 182
2000 3999 238
4 4 3
4 51 112
2 165 122
9 57965 340
10 183740 383
4 695834 509
56 1 113
74 48 116
64 267 128
66 18887 279
25 439352 449
39 570447 470
260 10 128
356 34 144
164 665 145
953 19960 279
906 335639 443
267 954609 525
69630 10 340
91694 24 351
19223 796 279
92056 7887 351
16931 223581 386
12363 759053 509
198312 9 383
332845 48 443
435759 434 449
488834 99081 449
313722 204024 443
139775 684097 509
885344 5 525
828891 77 509
712972 836 509
922750 3246 525
984278 357251 525
826354 796539 450
7 7 17
7 37 112
10 396 144
7 30722 308
4 110641 354
6 875532 525
38 7 112
25 37 112
51 386 144
26 72397 340
16 261702 443
31 981257 525
820 7 171
719 72 171
546 843 171
137 3243 217
662 483883 449
992 847368 525
25631 6 282
26365 65 282
52064 938 324
60000 25335 340
29590 209225 383
19701 717612 509
344760 4 443
289465 79 443
124050 226 354
419135 20849 449
257647 203887 443
172269 938323 525
922260 1 525
862357 14 525
631010 390 509
683551 6734 509
527937 153419 470
635306 862267 525
10 8 20
9 96 116
5 953 179
2 92949 351
2 266850 443
8 757264 509
20 3 21
94 99 119
44 619 144
59 37489 324
77 171833 383
42 879456 525
558 10 144
416 41 144
929 381 179
314 38090 324
555 390957 443
630 739293 509
21540 6 279
82679 65 351
26886 577 308
23529 34005 308
19137 393081 443
97981 516862 470
234998 2 443
109590 72 354
298122 745 443
491892 12624 449
210736 441691 449
258788 938127 525
694585 4 509
860312 20 525
694072 998 509
824357 84941 509
721578 452146 509
941194 516677 525
6 1 9
1 74 116
2 884 179
6 21835 279
7 438628 449
8 749321 509
80 8 116
44 48 105
46 683 145
79 51076 324
94 106801 354
51 596179 470
396 4 144
149 42 122
256 758 171
664 35976 324
256 144826 375
729 600731 470
16064 8 276
3689 16 217
9108 242 262
94245 94938 315
12468 291509 443
79827 726628 509
239011 3 443
425580 49 449
119121 959 354
258166 25284 443
407279 255008 441
150646 730942 509
600176 1 470
942405 36 525
634682 869 509
932234 50681 525
542233 200189 470
534181 645209 509
1 8 17
1 11 20
10 373 144
9 91599 351
9 314436 443
2 883203 525
88 6 116
43 44 30
39 233 128
82 74382 340
71 229460 386
43 780276 509
700 7 145
835 70 171
244 412 144
209 71555 340
464 453837 449
123 780842 509
14128 8 276
81174 51 351
55093 830 340
5845 81269 351
15167 429039 449
71250 720616 509
153613 8 375
351940 18 443
373340 379 443
129102 75450 354
404830 214829 443
367648 850065 525
504198 7 449
672493 89 509
516030 475 470
769577 56375 509
786200 227630 509
757512 936488 525
2 10 20
8 87 116
3 110 119
4 8930 262
5 229431 386
2 956943 525
71 7 113
68 60 108
40 578 144
47 82721 351
84 312551 443
32 735264 509
297 3 128
404 84 144
803 132 171
425 60761 340
957 478624 449
382 942296 525
88429 5 351
69575 59 340
51260 634 324
88046 4205 351
60775 211767 383
56354 660650 509
393671 8 443
155538 60 375
403017 327 443
322814 15771 443
498544 148477 449
104906 958184 525
875203 7 525
804929 34 509
772305 473 509
749049 81089 509
904304 108640 525
978288 783646 525
6 10 20
1 75 116
9 162 122
9 91348 351
1 334532 443
5 605514 470
38 8 112
65 35 113
64 394 144
41 99236 351
18 220551 386
19 988499 525
586 9 144
301 96 128
708 507 171
743 30730 308
709 423819 449
582 546749 470
40868 10 324
47624 70 324
56592 443 340
82092 17987 351
18330 360349 443
33095 954978 525
471453 7 449
256408 27 443
179779 696 383
143827 18034 375
239531 455882 449
489002 940370 525
536433 2 470
882517 96 525
776013 131 509
719937 26814 509
896922 459796 525
610066 904843 525
