1 10 20
100 200 125
201 210 89
900 1000 174
1 500 144
10 1009 179
1009 10 179
25 25 24
1 1 1
1 2 2
1 3 8
4 4 3
4 5 6
1 6 9
1 7 17
8 8 4
1 9 20
10 10 7
10 11 15
12 12 10
12 13 10
10 14 18
15 15 18
1 15 20
17 17 13
1 18 21
1 19 21
19 19 21
1 20 21
23 23 16
1 25 24
1 26 24
1 27 112
29 29 19
31 31 107
37 37 22
41 41 110
43 43 30
47 47 105
1 50 112
53 53 12
1 55 113
61 61 20
1 70 113
1 75 116
1 100 119
1 130 122
1 175 125
1 200 125
1 225 125
1 231 128
1 250 128
1 275 128
1 300 128
1 325 131
1 350 144
1 375 144
1 400 144
1 425 144
1 450 144
1 475 144
1 500 144
1 550 144
1 600 144
1 650 145
1 700 145
1 750 171
1 800 171
1 850 171
1 900 179
1 950 179
1 1000 179
1 2000 182
1 3000 217
1 4000 238
1 5000 238
1 6000 238
1 7000 262
1 8000 262
1 9000 262
1 10000 262
1 11000 268
1 12000 268
1 13000 268
1 14000 276
1 15000 276
1 16000 276
1 17000 276
1 18000 279
1 19000 279
1 20000 279
1 30000 308
1 40000 324
1 50000 324
1 60000 340
1 70000 340
1 80000 351
1 90000 351
1 100000 351
1 200000 383
1 400000 443
1 600000 470
1 800000 509
1 999999 525
556321 583605 421
878569 913751 476
797874 322703 509
984738 670366 525
847561 687995 525
777049 583015 509
12017 76089 340
699264 6063 509
860969 794060 525
708348 512585 509
441480 43284 449
272326 29333 443
828337 340731 509
709297 357245 509
68554 817919 509
215865 390495 443
315367 603672 470
391348 403067 405
314759 438084 449
377644 332983 441
175831 662133 509
977413 896990 507
403354 710773 509
824529 727097 468
205416 596274 470
697693 25981 509
833195 907373 525
93800 169414 383
723799 449823 509
262160 944136 525
375943 175870 443
13909 817969 509
802178 898657 525
941434 858691 507
730776 304367 509
631765 25937 509
743386 723035 424
619111 414343 470
433978 251121 449
580507 424279 470
298031 422857 449
953033 414437 525
833560 427462 509
411792 216697 449
206860 242955 443
338161 600032 470
909586 262186 525
521070 360155 470
723235 546157 509
785972 753834 468
247574 194728 443
144450 192945 383
867142 855682 388
124937 103476 354
534768 612092 452
511623 230726 449
873116 319973 525
218663 148348 386
139242 3563 354
607684 278302 470
897285 583705 525
359422 477215 449
603720 303231 470
379803 138770 443
180605 832822 509
290449 352344 441
778416 93645 509
4638 604876 470
128804 839765 525
757881 399414 509
147800 768958 509
931085 64867 525
349140 732857 509
649956 750177 504
87074 916937 525
955403 728939 525
586448 858115 525
81339 837269 509
121602 681923 509
825916 385002 509
450012 613620 470
992628 497480 525
111632 920090 525
468672 218098 449
518432 374747 470
338677 39228 443
873938 457751 525
517736 898540 525
244217 742574 509
487686 899569 525
571442 540433 452
849919 863680 419
144739 516618 470
550890 724280 509
548988 473150 470
318186 41370 443
940639 124182 525
709788 235063 509
821755 641160 504
375193 330949 441
442869 889796 525
306466 802020 509
528037 314734 470
824237 483367 509
349201 526246 470
45794 604594 470
863610 150622 525
895578 802559 525
552594 941802 525
197847 635609 509
619711 911020 525
583490 879672 525
254393 422341 449
609631 263579 470
893963 27899 525
394210 711217 509
885133 216543 525
953461 299814 525
269825 681052 509
10966 320771 443
291637 932938 525
888538 686907 525
500257 91577 449
136296 113925 349
189786 234248 443
466641 931719 525
3155 901221 525
583056 970042 525
616494 387035 470
616341 993416 525
983068 365330 525
973494 224605 525
747898 121182 509
792223 698210 504
406560 644006 509
589678 396722 470
191915 17185 383
915286 466120 525
419319 500968 444
161723 757639 509
405955 9155 443
747048 548336 509
28801 7464 308
149538 197837 383
223634 3057 386
751136 704555 504
252259 534690 470
376377 832274 509
351682 105585 443
12330 527483 470
